jbeam,jbeam,Jim,Bean,jbeam@jmetertraining.com
mmark,mmark,Makers,Mark,mmark@jmetertraining.com
kcreek,kcreek,Knob,Creek,kcreek@jmetertraining.com
wreserve,wreserve,Woodford,Reserve,wreserve@jmetertraining.com
aenvy,aenvy,Angels,Envy,aenvy@jmetertraining.com
oforester,oforester,Old,Forester,oforester@jmetertraining.com
btrace,btrace,Buffalo,Trace,btrace@jmetertraining.com
erare,erare,Eagle,Rare,erre@jmetertraining.com
froses,froses,Four,Roses,froses@jmetertraining.com
bhaydens,bhaydens,Basil,Haydens,bheydens@jmetertraining.com
